# 3ds Max Wavefront OBJ Exporter v0.97b - (c)2007 guruware
# File Created: 23.05.2018 12:06:50

newmtl Material__31
	Ns 10.0000
	Ni 1.5000
	d 1.0000
	Tr 0.0000
	Tf 1.0000 1.0000 1.0000 
	illum 2
	Ka 0.5880 0.5880 0.5880
	Kd 0.5880 0.5880 0.5880
	Ks 0.0000 0.0000 0.0000
	Ke 0.0000 0.0000 0.0000
	map_Ka C:\_DEV\URJC\SZG\app\res\models\myOwn\body.png
	map_Kd C:\_DEV\URJC\SZG\app\res\models\myOwn\body.png

newmtl Material__32
	Ns 10.0000
	Ni 1.5000
	d 1.0000
	Tr 0.0000
	Tf 1.0000 1.0000 1.0000 
	illum 2
	Ka 0.5880 0.5880 0.5880
	Kd 0.5880 0.5880 0.5880
	Ks 0.0000 0.0000 0.0000
	Ke 0.0000 0.0000 0.0000
	map_Ka C:\_DEV\URJC\SZG\app\res\models\myOwn\eye.png
	map_Kd C:\_DEV\URJC\SZG\app\res\models\myOwn\eye.png

newmtl Material__34
	Ns 10.0000
	Ni 1.5000
	d 1.0000
	Tr 0.0000
	Tf 1.0000 1.0000 1.0000 
	illum 2
	Ka 0.5880 0.5880 0.5880
	Kd 0.5880 0.5880 0.5880
	Ks 0.0000 0.0000 0.0000
	Ke 0.0000 0.0000 0.0000
	map_Ka C:\_DEV\URJC\SZG\app\res\models\myOwn\legs.png
	map_Kd C:\_DEV\URJC\SZG\app\res\models\myOwn\legs.png

newmtl Material__33
	Ns 10.0000
	Ni 1.5000
	d 1.0000
	Tr 0.0000
	Tf 1.0000 1.0000 1.0000 
	illum 2
	Ka 0.5880 0.5880 0.5880
	Kd 0.5880 0.5880 0.5880
	Ks 0.0000 0.0000 0.0000
	Ke 0.0000 0.0000 0.0000
	map_Ka C:\_DEV\URJC\SZG\app\res\models\myOwn\eye_bg.png
	map_Kd C:\_DEV\URJC\SZG\app\res\models\myOwn\eye_bg.png
